# m h  dom mon dow   command
1,11,21,31,41,51 * * * * /usr/bin/python /var/www/interpolation/interpolationTemp.py
2,12,22,32,42,52 * * * * /usr/bin/php -q /var/www/html/pljusak/radari/arso_SR.php
12,27,42,57 * * * * /usr/bin/php -q /var/www/html/pljusak/radari/bilosi_SR.php
12,27,42,57 * * * * /usr/bin/python /var/www/html/pljusak/radari/radarDhmzArhiva.py
2,12,22,32,42,52 * * * * /usr/bin/python /var/www/html/pljusak/radari/radarArsoArhiva.py
3,13,23,33,43,53 * * * * /usr/bin/php -q /var/www/html/pljusak/radari/radari.php
3,13,23,33,43,53 * * * * /usr/bin/python //var/www/html/pljusak/radari/akumulirano_arso.py